<svg width="131" height="42" viewBox="0 0 131 42" fill="none" xmlns="http://www.w3.org/2000/svg">
<path d="M44.6172 6.14115H48.045C49.3803 6.14115 50.3706 6.34055 51.0159 6.73934C51.6656 7.13366 51.9905 7.74978 51.9905 8.5877C51.9905 9.13885 51.8493 9.60934 51.567 9.99917C51.2847 10.389 50.9128 10.6399 50.4513 10.752V10.8192C51.0607 10.9805 51.502 11.2493 51.7754 11.6257C52.0487 12.0021 52.1854 12.4905 52.1854 13.091C52.1854 13.9827 51.8493 14.6862 51.1772 15.2015C50.5095 15.7123 49.5977 15.9677 48.4416 15.9677H44.6172V6.14115ZM47.2721 9.9118H48.0719C48.4528 9.9118 48.7463 9.83338 48.9524 9.67655C49.163 9.51972 49.2683 9.28671 49.2683 8.97754C49.2683 8.42639 48.8516 8.15082 48.0182 8.15082H47.2721V9.9118ZM47.2721 11.8543V13.9177H48.2064C49.0353 13.9177 49.4498 13.5682 49.4498 12.8692C49.4498 12.5421 49.3378 12.2911 49.1137 12.1164C48.8942 11.9416 48.5738 11.8543 48.1526 11.8543H47.2721Z" fill="url(#paint0_linear)"/>
<path d="M56.5475 12.392V15.9677H53.8926V6.14115H57.1121C59.7827 6.14115 61.118 7.10901 61.118 9.04475C61.118 10.1829 60.5623 11.0634 59.4511 11.6862L62.3144 15.9677H59.3032L57.2196 12.392H56.5475ZM56.5475 10.3957H57.0449C57.9724 10.3957 58.4362 9.98573 58.4362 9.16573C58.4362 8.48912 57.9814 8.15082 57.0718 8.15082H56.5475V10.3957Z" fill="url(#paint1_linear)"/>
<path d="M63.2083 15.9677V6.14115H65.8767V15.9677H63.2083Z" fill="url(#paint2_linear)"/>
<path d="M70.4266 15.9941H67.812V6.16751H73.6192V8.29817H70.4266V10.1734H73.3705V12.3041H70.4266V15.9941Z" fill="url(#paint3_linear)"/>
<path d="M75.2323 15.9941V6.16751H77.9007V15.9941H75.2323Z" fill="url(#paint4_linear)"/>
<path d="M84.4069 8.20407C83.7751 8.20407 83.2822 8.46396 82.9282 8.98374C82.5742 9.49904 82.3972 10.2115 82.3972 11.1211C82.3972 13.012 83.1164 13.9575 84.5547 13.9575C84.9894 13.9575 85.4106 13.897 85.8183 13.776C86.2261 13.655 86.6361 13.5094 87.0483 13.3391V15.5841C86.2283 15.947 85.3008 16.1285 84.2657 16.1285C82.7826 16.1285 81.6444 15.6983 80.8513 14.838C80.0627 13.9777 79.6684 12.7342 79.6684 11.1077C79.6684 10.0905 79.8588 9.19658 80.2397 8.42587C80.625 7.65516 81.1762 7.06369 81.8931 6.65145C82.6145 6.23473 83.4614 6.02637 84.4338 6.02637C85.4957 6.02637 86.5106 6.25713 87.4785 6.71866L86.6652 8.80898C86.3023 8.63871 85.9393 8.49532 85.5764 8.37882C85.2134 8.26232 84.8236 8.20407 84.4069 8.20407Z" fill="url(#paint5_linear)"/>
<path d="M94.8047 15.9941H88.9706V6.16751H94.8047V8.29817H91.6255V9.84406H94.5695V11.9747H91.6255V13.8298H94.8047V15.9941Z" fill="url(#paint6_linear)"/>
<path d="M44.8833 21.2485H46.6982C47.5508 21.2485 48.1675 21.376 48.5483 21.6309C48.9292 21.8857 49.1196 22.2886 49.1196 22.8394C49.1196 23.2202 49.0127 23.5352 48.7988 23.7842C48.5879 24.0303 48.2788 24.1899 47.8716 24.2632V24.3071C48.8472 24.4741 49.335 24.9868 49.335 25.8452C49.335 26.4194 49.1401 26.8677 48.7505 27.1899C48.3638 27.5122 47.8218 27.6733 47.1245 27.6733H44.8833V21.2485ZM45.6304 23.9995H46.8608C47.3882 23.9995 47.7676 23.9175 47.999 23.7534C48.2305 23.5864 48.3462 23.3066 48.3462 22.9141C48.3462 22.5537 48.2173 22.2944 47.9595 22.1362C47.7017 21.9751 47.2915 21.8945 46.729 21.8945H45.6304V23.9995ZM45.6304 24.6323V27.0361H46.9707C47.4893 27.0361 47.8789 26.9365 48.1396 26.7373C48.4033 26.5352 48.5352 26.2202 48.5352 25.7925C48.5352 25.394 48.4004 25.1011 48.1309 24.9136C47.8643 24.7261 47.457 24.6323 46.9092 24.6323H45.6304ZM51.6463 25.0015V27.6733H50.8992V21.2485H52.6614C53.4495 21.2485 54.0311 21.3994 54.4061 21.7012C54.784 22.0029 54.973 22.457 54.973 23.0635C54.973 23.9131 54.5423 24.4873 53.681 24.7861L55.4256 27.6733H54.5423L52.9866 25.0015H51.6463ZM51.6463 24.3599H52.6702C53.1976 24.3599 53.5843 24.2559 53.8304 24.0479C54.0765 23.8369 54.1995 23.522 54.1995 23.103C54.1995 22.6782 54.0736 22.3721 53.8216 22.1846C53.5726 21.9971 53.1712 21.9033 52.6175 21.9033H51.6463V24.3599ZM56.6427 27.6733V21.2485H57.3898V27.6733H56.6427ZM62.6013 27.6733H61.8543V21.2485H65.4358V21.9121H62.6013V24.2632H65.2644V24.9268H62.6013V27.6733ZM67.3033 27.6733H66.5738V22.8569H67.3033V27.6733ZM66.5123 21.5518C66.5123 21.3848 66.5533 21.2632 66.6354 21.187C66.7174 21.1079 66.8199 21.0684 66.943 21.0684C67.0602 21.0684 67.1612 21.1079 67.2462 21.187C67.3312 21.2661 67.3736 21.3877 67.3736 21.5518C67.3736 21.7158 67.3312 21.8389 67.2462 21.9209C67.1612 22 67.0602 22.0396 66.943 22.0396C66.8199 22.0396 66.7174 22 66.6354 21.9209C66.5533 21.8389 66.5123 21.7158 66.5123 21.5518ZM72.3261 27.6733V24.5576C72.3261 24.165 72.2367 23.8721 72.058 23.6787C71.8793 23.4854 71.5995 23.3887 71.2187 23.3887C70.7148 23.3887 70.3456 23.5249 70.1112 23.7974C69.8769 24.0698 69.7597 24.5195 69.7597 25.1465V27.6733H69.0302V22.8569H69.6235L69.7421 23.5161H69.7773C69.9267 23.2788 70.1362 23.0957 70.4057 22.9668C70.6752 22.835 70.9755 22.769 71.3066 22.769C71.8866 22.769 72.3232 22.9097 72.6161 23.1909C72.9091 23.4692 73.0556 23.916 73.0556 24.5312V27.6733H72.3261ZM77.7004 27.6733L77.5554 26.9878H77.5203C77.28 27.2896 77.0398 27.4946 76.7996 27.603C76.5622 27.7085 76.2649 27.7612 75.9075 27.7612C75.4299 27.7612 75.0549 27.6382 74.7825 27.3921C74.5129 27.146 74.3782 26.7959 74.3782 26.3418C74.3782 25.3691 75.156 24.8594 76.7117 24.8125L77.529 24.7861V24.4873C77.529 24.1094 77.447 23.8311 77.2829 23.6523C77.1218 23.4707 76.8625 23.3799 76.5051 23.3799C76.1038 23.3799 75.6496 23.5029 75.1428 23.749L74.9187 23.1909C75.156 23.062 75.4153 22.9609 75.6965 22.8877C75.9807 22.8145 76.2649 22.7778 76.5491 22.7778C77.1233 22.7778 77.5481 22.9053 77.8235 23.1602C78.1018 23.415 78.241 23.8237 78.241 24.3862V27.6733H77.7004ZM76.0525 27.1592C76.5066 27.1592 76.8625 27.0347 77.1204 26.7856C77.3811 26.5366 77.5115 26.188 77.5115 25.7397V25.3047L76.782 25.3354C76.2019 25.356 75.7829 25.4468 75.5251 25.6079C75.2703 25.7661 75.1428 26.0137 75.1428 26.3506C75.1428 26.6143 75.2219 26.8149 75.3801 26.9526C75.5413 27.0903 75.7654 27.1592 76.0525 27.1592ZM83.2242 27.6733V24.5576C83.2242 24.165 83.1348 23.8721 82.9561 23.6787C82.7774 23.4854 82.4976 23.3887 82.1168 23.3887C81.6129 23.3887 81.2437 23.5249 81.0093 23.7974C80.775 24.0698 80.6578 24.5195 80.6578 25.1465V27.6733H79.9283V22.8569H80.5215L80.6402 23.5161H80.6754C80.8248 23.2788 81.0342 23.0957 81.3038 22.9668C81.5733 22.835 81.8736 22.769 82.2046 22.769C82.7847 22.769 83.2212 22.9097 83.5142 23.1909C83.8072 23.4692 83.9537 23.916 83.9537 24.5312V27.6733H83.2242ZM87.5614 27.7612C86.8641 27.7612 86.3236 27.5474 85.9398 27.1196C85.559 26.689 85.3685 26.0811 85.3685 25.2959C85.3685 24.4902 85.5619 23.8677 85.9486 23.4282C86.3383 22.9888 86.892 22.769 87.6097 22.769C87.8412 22.769 88.0726 22.7939 88.3041 22.8438C88.5355 22.8936 88.7172 22.9521 88.849 23.0195L88.6249 23.6392C88.4637 23.5747 88.288 23.522 88.0975 23.481C87.9071 23.437 87.7387 23.415 87.5922 23.415C86.6137 23.415 86.1244 24.0391 86.1244 25.2871C86.1244 25.8789 86.243 26.333 86.4804 26.6494C86.7206 26.9658 87.0751 27.124 87.5438 27.124C87.9452 27.124 88.3568 27.0376 88.7787 26.8647V27.5107C88.4564 27.6777 88.0507 27.7612 87.5614 27.7612ZM90.8352 27.6733H90.1057V22.8569H90.8352V27.6733ZM90.0441 21.5518C90.0441 21.3848 90.0852 21.2632 90.1672 21.187C90.2492 21.1079 90.3518 21.0684 90.4748 21.0684C90.592 21.0684 90.6931 21.1079 90.778 21.187C90.863 21.2661 90.9055 21.3877 90.9055 21.5518C90.9055 21.7158 90.863 21.8389 90.778 21.9209C90.6931 22 90.592 22.0396 90.4748 22.0396C90.3518 22.0396 90.2492 22 90.1672 21.9209C90.0852 21.8389 90.0441 21.7158 90.0441 21.5518ZM95.5239 27.6733L95.3789 26.9878H95.3438C95.1035 27.2896 94.8633 27.4946 94.6231 27.603C94.3858 27.7085 94.0884 27.7612 93.731 27.7612C93.2534 27.7612 92.8784 27.6382 92.606 27.3921C92.3364 27.146 92.2017 26.7959 92.2017 26.3418C92.2017 25.3691 92.9795 24.8594 94.5352 24.8125L95.3526 24.7861V24.4873C95.3526 24.1094 95.2705 23.8311 95.1065 23.6523C94.9453 23.4707 94.6861 23.3799 94.3286 23.3799C93.9273 23.3799 93.4732 23.5029 92.9663 23.749L92.7422 23.1909C92.9795 23.062 93.2388 22.9609 93.52 22.8877C93.8042 22.8145 94.0884 22.7778 94.3726 22.7778C94.9468 22.7778 95.3716 22.9053 95.647 23.1602C95.9253 23.415 96.0645 23.8237 96.0645 24.3862V27.6733H95.5239ZM93.876 27.1592C94.3301 27.1592 94.6861 27.0347 94.9439 26.7856C95.2046 26.5366 95.335 26.188 95.335 25.7397V25.3047L94.6055 25.3354C94.0254 25.356 93.6065 25.4468 93.3487 25.6079C93.0938 25.7661 92.9663 26.0137 92.9663 26.3506C92.9663 26.6143 93.0454 26.8149 93.2036 26.9526C93.3648 27.0903 93.5889 27.1592 93.876 27.1592ZM98.4813 27.6733H97.7518V20.8354H98.4813V27.6733ZM106.874 27.6733L106.075 25.6299H103.499L102.708 27.6733H101.953L104.493 21.2222H105.121L107.648 27.6733H106.874ZM105.842 24.9575L105.095 22.9668C104.998 22.7148 104.898 22.4058 104.796 22.0396C104.731 22.3208 104.639 22.6299 104.519 22.9668L103.763 24.9575H105.842ZM111.88 27.0273H111.84C111.503 27.5166 110.999 27.7612 110.328 27.7612C109.699 27.7612 109.208 27.5459 108.856 27.1152C108.508 26.6846 108.333 26.0723 108.333 25.2783C108.333 24.4844 108.509 23.8677 108.861 23.4282C109.212 22.9888 109.701 22.769 110.328 22.769C110.982 22.769 111.483 23.0063 111.831 23.481H111.888L111.858 23.1338L111.84 22.7954V20.8354H112.57V27.6733H111.976L111.88 27.0273ZM110.421 27.1504C110.919 27.1504 111.279 27.0156 111.502 26.7461C111.727 26.4736 111.84 26.0356 111.84 25.4321V25.2783C111.84 24.5957 111.726 24.1094 111.497 23.8193C111.272 23.5264 110.91 23.3799 110.412 23.3799C109.984 23.3799 109.656 23.5469 109.428 23.8809C109.202 24.2119 109.089 24.6807 109.089 25.2871C109.089 25.9023 109.202 26.3667 109.428 26.6802C109.653 26.9937 109.984 27.1504 110.421 27.1504ZM115.356 27.6733L113.527 22.8569H114.31L115.347 25.7134C115.581 26.3813 115.719 26.8149 115.76 27.0142H115.795C115.827 26.8589 115.928 26.5381 116.098 26.0518C116.271 25.5625 116.656 24.4976 117.254 22.8569H118.036L116.208 27.6733H115.356ZM119.719 27.6733H118.99V22.8569H119.719V27.6733ZM118.928 21.5518C118.928 21.3848 118.969 21.2632 119.051 21.187C119.133 21.1079 119.236 21.0684 119.359 21.0684C119.476 21.0684 119.577 21.1079 119.662 21.187C119.747 21.2661 119.789 21.3877 119.789 21.5518C119.789 21.7158 119.747 21.8389 119.662 21.9209C119.577 22 119.476 22.0396 119.359 22.0396C119.236 22.0396 119.133 22 119.051 21.9209C118.969 21.8389 118.928 21.7158 118.928 21.5518ZM123.371 27.7612C122.674 27.7612 122.133 27.5474 121.749 27.1196C121.368 26.689 121.178 26.0811 121.178 25.2959C121.178 24.4902 121.371 23.8677 121.758 23.4282C122.148 22.9888 122.701 22.769 123.419 22.769C123.651 22.769 123.882 22.7939 124.114 22.8438C124.345 22.8936 124.527 22.9521 124.658 23.0195L124.434 23.6392C124.273 23.5747 124.097 23.522 123.907 23.481C123.717 23.437 123.548 23.415 123.402 23.415C122.423 23.415 121.934 24.0391 121.934 25.2871C121.934 25.8789 122.052 26.333 122.29 26.6494C122.53 26.9658 122.885 27.124 123.353 27.124C123.755 27.124 124.166 27.0376 124.588 26.8647V27.5107C124.266 27.6777 123.86 27.7612 123.371 27.7612ZM127.95 27.7612C127.238 27.7612 126.675 27.5444 126.262 27.1108C125.852 26.6772 125.647 26.0752 125.647 25.3047C125.647 24.5283 125.837 23.9116 126.218 23.4546C126.602 22.9976 127.116 22.769 127.761 22.769C128.364 22.769 128.842 22.9683 129.193 23.3667C129.545 23.7622 129.721 24.2852 129.721 24.9355V25.397H126.403C126.418 25.9624 126.56 26.3916 126.829 26.6846C127.102 26.9775 127.484 27.124 127.976 27.124C128.495 27.124 129.007 27.0156 129.514 26.7988V27.4492C129.256 27.5605 129.012 27.6396 128.78 27.6865C128.552 27.7363 128.275 27.7612 127.95 27.7612ZM127.752 23.3799C127.365 23.3799 127.056 23.5059 126.825 23.7578C126.596 24.0098 126.462 24.3584 126.42 24.8037H128.939C128.939 24.3438 128.836 23.9922 128.631 23.749C128.426 23.5029 128.133 23.3799 127.752 23.3799Z" fill="#4A4A4A"/>
<g filter="url(#filter0_d)">
<path d="M18.2816 30.9972C25.8836 30.8472 32 24.6379 32 17C32 9.26801 25.732 3 18 3C10.268 3 4 9.26801 4 17C4 21.3693 6.00158 25.2711 9.13783 27.8385C10.1242 28.6971 11.2151 29.4337 12.3876 30.0295L18.1931 32.9793L18.2816 30.9972Z" fill="url(#paint7_linear)"/>
</g>
<g filter="url(#filter1_d)">
<path fill-rule="evenodd" clip-rule="evenodd" d="M10.796 22.1289C11.3227 21.5629 12.2086 21.531 12.7746 22.0577C14.7199 23.868 16.5988 24.5359 18.2846 24.4793C19.986 24.4222 21.7073 23.6194 23.3028 22.0763C23.8586 21.5388 24.7449 21.5536 25.2824 22.1093C25.8199 22.6651 25.8051 23.5514 25.2494 24.089C23.2863 25.9876 20.9366 27.1918 18.3786 27.2777C15.8048 27.3642 13.2353 26.3112 10.8672 24.1075C10.3011 23.5808 10.2693 22.6949 10.796 22.1289Z" fill="url(#paint8_linear)"/>
</g>
<defs>
<filter id="filter0_d" x="0" y="0" width="36" height="37.9793" filterUnits="userSpaceOnUse" color-interpolation-filters="sRGB">
<feFlood flood-opacity="0" result="BackgroundImageFix"/>
<feColorMatrix in="SourceAlpha" type="matrix" values="0 0 0 0 0 0 0 0 0 0 0 0 0 0 0 0 0 0 127 0" result="hardAlpha"/>
<feOffset dy="1"/>
<feGaussianBlur stdDeviation="2"/>
<feColorMatrix type="matrix" values="0 0 0 0 0 0 0 0 0 0 0 0 0 0 0 0 0 0 0.14 0"/>
<feBlend mode="normal" in2="BackgroundImageFix" result="effect1_dropShadow"/>
<feBlend mode="normal" in="SourceGraphic" in2="effect1_dropShadow" result="shape"/>
</filter>
<filter id="filter1_d" x="1.4209" y="17.6826" width="33.2552" height="23.6" filterUnits="userSpaceOnUse" color-interpolation-filters="sRGB">
<feFlood flood-opacity="0" result="BackgroundImageFix"/>
<feColorMatrix in="SourceAlpha" type="matrix" values="0 0 0 0 0 0 0 0 0 0 0 0 0 0 0 0 0 0 127 0" result="hardAlpha"/>
<feOffset dy="5"/>
<feGaussianBlur stdDeviation="4.5"/>
<feColorMatrix type="matrix" values="0 0 0 0 0 0 0 0 0 0 0 0 0 0 0 0 0 0 0.25 0"/>
<feBlend mode="normal" in2="BackgroundImageFix" result="effect1_dropShadow"/>
<feBlend mode="normal" in="SourceGraphic" in2="effect1_dropShadow" result="shape"/>
</filter>
<linearGradient id="paint0_linear" x1="89.2668" y1="3.42974" x2="88.0445" y2="19.1019" gradientUnits="userSpaceOnUse">
<stop stop-color="#6AA6FF"/>
<stop offset="1" stop-color="#2736C1"/>
</linearGradient>
<linearGradient id="paint1_linear" x1="89.2668" y1="3.42974" x2="88.0445" y2="19.1019" gradientUnits="userSpaceOnUse">
<stop stop-color="#6AA6FF"/>
<stop offset="1" stop-color="#2736C1"/>
</linearGradient>
<linearGradient id="paint2_linear" x1="89.2668" y1="3.42974" x2="88.0445" y2="19.1019" gradientUnits="userSpaceOnUse">
<stop stop-color="#6AA6FF"/>
<stop offset="1" stop-color="#2736C1"/>
</linearGradient>
<linearGradient id="paint3_linear" x1="89.0715" y1="3.4561" x2="87.8492" y2="19.1283" gradientUnits="userSpaceOnUse">
<stop stop-color="#FFC225"/>
<stop offset="1" stop-color="#FF9D07"/>
</linearGradient>
<linearGradient id="paint4_linear" x1="89.0715" y1="3.4561" x2="87.8492" y2="19.1283" gradientUnits="userSpaceOnUse">
<stop stop-color="#FFC225"/>
<stop offset="1" stop-color="#FF9D07"/>
</linearGradient>
<linearGradient id="paint5_linear" x1="89.0715" y1="3.4561" x2="87.8492" y2="19.1283" gradientUnits="userSpaceOnUse">
<stop stop-color="#FFC225"/>
<stop offset="1" stop-color="#FF9D07"/>
</linearGradient>
<linearGradient id="paint6_linear" x1="89.0715" y1="3.4561" x2="87.8492" y2="19.1283" gradientUnits="userSpaceOnUse">
<stop stop-color="#FFC225"/>
<stop offset="1" stop-color="#FF9D07"/>
</linearGradient>
<linearGradient id="paint7_linear" x1="28.8138" y1="-4.62758" x2="12.2069" y2="35.2483" gradientUnits="userSpaceOnUse">
<stop stop-color="#6AA6FF"/>
<stop offset="1" stop-color="#2736C1"/>
</linearGradient>
<linearGradient id="paint8_linear" x1="18.0485" y1="23.0826" x2="17.1795" y2="26.7516" gradientUnits="userSpaceOnUse">
<stop stop-color="#FFC225"/>
<stop offset="1" stop-color="#FF9B06"/>
</linearGradient>
</defs>
</svg>
