<svg width="48" height="48" viewBox="0 0 48 48" fill="none" xmlns="http://www.w3.org/2000/svg">
<path d="M12.4991 37.0625C9.29721 37.0625 6.44912 35.0124 5.41491 31.9604L5.34496 31.7304C5.10106 30.9221 4.99888 30.2424 4.99888 29.5623V15.9258L0.146837 32.1222C-0.477202 34.5045 0.94483 36.9743 3.33075 37.6324L34.2577 45.9148C34.6437 46.0148 35.0297 46.0627 35.4098 46.0627C37.4017 46.0627 39.2218 44.7407 39.7319 42.7924L41.5337 37.0625H12.4991Z" fill="#C6C6C6"/>
<path d="M17.9992 16.062C20.2053 16.062 21.9991 14.2678 21.9991 12.0617C21.9991 9.85563 20.2053 8.06152 17.9992 8.06152C15.7931 8.06152 13.999 9.85563 13.999 12.0617C13.999 14.2678 15.7931 16.062 17.9992 16.062Z" fill="#C6C6C6"/>
<path d="M42.9998 2.06152H12.999C10.2432 2.06152 7.99902 4.30572 7.99902 7.06189V29.0622C7.99902 31.8184 10.2432 34.0625 12.999 34.0625H42.9998C45.7559 34.0625 48.0001 31.8184 48.0001 29.0622V7.06189C48.0001 4.30572 45.7559 2.06152 42.9998 2.06152ZM12.999 6.06174H42.9998C43.552 6.06174 43.9999 6.50963 43.9999 7.06189V21.2602L37.6819 13.8879C37.0117 13.102 36.0416 12.6819 34.9997 12.6581C33.9637 12.664 32.9917 13.1239 32.3278 13.9201L24.8993 22.8361L22.4794 20.422C21.1115 19.0541 18.8853 19.0541 17.5193 20.422L11.9992 25.9402V7.06189C11.9992 6.50963 12.4471 6.06174 12.999 6.06174Z" fill="#C6C6C6"/>
</svg>
